%YAML 1.1
%TAG !u! tag:unity3d.com,2011:
--- !u!1001 &2488813679931555741
PrefabInstance:
  m_ObjectHideFlags: 0
  serializedVersion: 2
  m_Modification:
    m_TransformParent: {fileID: 0}
    m_Modifications:
    - target: {fileID: 2790104637979839695, guid: a934fc000039a434d95ef7b46ba6a664, type: 3}
      propertyPath: m_Sprite
      value: 
      objectReference: {fileID: 21300000, guid: 43faf8894bc3db946a0e682c508eb0e8, type: 3}
    - target: {fileID: 3632198093464485298, guid: a934fc000039a434d95ef7b46ba6a664, type: 3}
      propertyPath: m_LocalPosition.x
      value: -30.6
      objectReference: {fileID: 0}
    - target: {fileID: 3632198093464485298, guid: a934fc000039a434d95ef7b46ba6a664, type: 3}
      propertyPath: m_LocalPosition.y
      value: 18.7
      objectReference: {fileID: 0}
    - target: {fileID: 3632198093464485298, guid: a934fc000039a434d95ef7b46ba6a664, type: 3}
      propertyPath: m_LocalPosition.z
      value: 0
      objectReference: {fileID: 0}
    - target: {fileID: 3632198093464485298, guid: a934fc000039a434d95ef7b46ba6a664, type: 3}
      propertyPath: m_LocalRotation.x
      value: 0
      objectReference: {fileID: 0}
    - target: {fileID: 3632198093464485298, guid: a934fc000039a434d95ef7b46ba6a664, type: 3}
      propertyPath: m_LocalRotation.y
      value: -0
      objectReference: {fileID: 0}
    - target: {fileID: 3632198093464485298, guid: a934fc000039a434d95ef7b46ba6a664, type: 3}
      propertyPath: m_LocalRotation.z
      value: 0
      objectReference: {fileID: 0}
    - target: {fileID: 3632198093464485298, guid: a934fc000039a434d95ef7b46ba6a664, type: 3}
      propertyPath: m_LocalRotation.w
      value: 1
      objectReference: {fileID: 0}
    - target: {fileID: 3632198093464485298, guid: a934fc000039a434d95ef7b46ba6a664, type: 3}
      propertyPath: m_RootOrder
      value: 0
      objectReference: {fileID: 0}
    - target: {fileID: 3632198093464485298, guid: a934fc000039a434d95ef7b46ba6a664, type: 3}
      propertyPath: m_LocalEulerAnglesHint.x
      value: 0
      objectReference: {fileID: 0}
    - target: {fileID: 3632198093464485298, guid: a934fc000039a434d95ef7b46ba6a664, type: 3}
      propertyPath: m_LocalEulerAnglesHint.y
      value: 0
      objectReference: {fileID: 0}
    - target: {fileID: 3632198093464485298, guid: a934fc000039a434d95ef7b46ba6a664, type: 3}
      propertyPath: m_LocalEulerAnglesHint.z
      value: 0
      objectReference: {fileID: 0}
    - target: {fileID: 3632198093464485302, guid: a934fc000039a434d95ef7b46ba6a664, type: 3}
      propertyPath: m_Name
      value: Orb Switch
      objectReference: {fileID: 0}
    m_RemovedComponents: []
  m_SourcePrefab: {fileID: 100100000, guid: a934fc000039a434d95ef7b46ba6a664, type: 3}
